9 Regression Models | R Textbook
…
## # A tibble: 3 x 6
##   term        estimate std.error statistic   p.value     adj_p
##   <chr>          <dbl>     <dbl>     <dbl>     <dbl>     <dbl>
## 1 (Intercept)    4.51     0.430       10.5 1.66e- 24 4.98e- 24
## 2 x1             0.333    0.0306      10.9 3.95e- 26 1.18e- 25
## 3 x2             0.610    0.0152      40.0 1.63e-209 4.90e-209

Lastly, if I want to see some participant-level information about my model (e.g., predicted values), I can use augment(). This gives me a ton of useful information, including predicted values and standardized residuals.

augment(fit)

## # A tibble: 1,000 x 10
##        y    x1    x2 .fitted .se.fit  .resid    .hat .sigma .cooksd
##    <dbl> <dbl> <dbl>   <dbl>   <dbl>   <dbl>   <dbl>  <dbl>   <dbl>
##  1  21.5  9.20  23.6    21.9  0.0679 -0.397  0.00478  0.982 2.64e-4
##  2  22.2  9.27  21.9    21.0  0.0486  1.18   0.00246  0.981 1.20e-3
##  3  21.2 11.4   22.0    21.7  0.0621 -0.528  0.00401  0.982 3.91e-4
##  4  21.9 10.3   22.0    21.3  0.0447  0.529  0.00208  0.982 2.02e-4
##  5  20.3  9.60  21.9    21.0  0.0442 -0.790  0.00203  0.981 4.40e-4
##  6  19.0 10.1   17.7    18.7  0.0461  0.306  0.00221  0.982 7.18e-5
##  7  20.1 11.2   20.1    20.5  0.0478 -0.384  0.00237  0.982 1.22e-4
##  8  20.5  9.22  19.4    19.4  0.0395  1.10   0.00162  0.981 6.77e-4
##  9  24.3  8.24  23.2    21.4  0.0791  2.93   0.00649  0.977 1.96e-2
## 10  20.0  7.70  21.0    19.9  0.0784  0.0792 0.00638  0.982 1.40e-5
## # … with 990 more rows, and 1 more variable: .std.resid <dbl>
…
