3 Visualization | R Textbook
…
The most popular graphics package in R to date (maybe even accross all programming languages) is ggplot2. An update of the original ggplot package, ggplot2 is based on the Grammar of Graphics above. It functions are designed specifically to behave like a grammar, in which you add plot elements together like a sentence.

Lets explore how to build a plot.

We’ll start by loading the ggplot2 package and one of its built-in datasets (called mpg). This dataset includes information on 234 cars that will be convenient for us to plot.

install.packages('ggplot2')

library(ggplot2)

data(mpg)

mpg

## # A tibble: 234 x 11
##    manufacturer model displ  year   cyl trans drv     cty   hwy fl    class
##    <chr>        <chr> <dbl> <int> <int> <chr> <chr> <int> <int> <chr> <chr>
##  1 audi         a4      1.8  1999     4 auto… f        18    29 p     comp…
##  2 audi         a4      1.8  1999     4 manu… f        21    29 p     comp…
##  3 audi         a4      2    2008     4 manu… f        20    31 p     comp…
##  4 audi         a4      2    2008     4 auto… f        21    30 p     comp…
##  5 audi         a4      2.8  1999     6 auto… f        16    26 p     comp…
##  6 audi         a4      2.8  1999     6 manu… f        18    26 p     comp…
##  7 audi         a4      3.1  2008     6 auto… f        18    27 p     comp…
##  8 audi         a4 q…   1.8  1999     4 manu… 4        18    26 p     comp…
##  9 audi         a4 q…   1.8  1999     4 auto… 4        16    25 p     comp…
## 10 audi         a4 q…   2    2008     4 manu… 4        20    28 p     comp…
## # … with 224 more rows
…
